<?xml version="1.0" encoding="UTF-8" standalone="no"?>
<!-- Created with Inkscape (http://www.inkscape.org/) -->

<svg
   xmlns:dc="http://purl.org/dc/elements/1.1/"
   xmlns:cc="http://creativecommons.org/ns#"
   xmlns:rdf="http://www.w3.org/1999/02/22-rdf-syntax-ns#"
   xmlns:svg="http://www.w3.org/2000/svg"
   xmlns="http://www.w3.org/2000/svg"
   version="1.1"
   width="283.69531"
   height="30.628906"
   id="svg2">
  <defs
     id="defs4">
    <filter
       color-interpolation-filters="sRGB"
       id="filter3807">
      <feOffset
         dx="3"
         dy="3"
         id="feOffset3809" />
      <feGaussianBlur
         stdDeviation="3"
         result="result8"
         id="feGaussianBlur3811" />
      <feFlood
         result="result10"
         in="result8"
         flood-opacity="1"
         flood-color="rgb(0,0,0)"
         id="feFlood3813" />
      <feComposite
         in2="SourceGraphic"
         operator="in"
         in="result10"
         result="result9"
         id="feComposite3815" />
      <feBlend
         in2="result9"
         mode="normal"
         in="result8"
         id="feBlend3817" />
    </filter>
    <filter
       color-interpolation-filters="sRGB"
       id="filter3867">
      <feOffset
         dx="3"
         dy="3"
         id="feOffset3869" />
      <feGaussianBlur
         stdDeviation="3"
         result="result8"
         id="feGaussianBlur3871" />
      <feFlood
         result="result10"
         in="result8"
         flood-opacity="1"
         flood-color="rgb(0,0,0)"
         id="feFlood3873" />
      <feComposite
         in2="SourceGraphic"
         operator="in"
         in="result10"
         result="result9"
         id="feComposite3875" />
      <feBlend
         in2="result9"
         mode="normal"
         in="result8"
         id="feBlend3877" />
    </filter>
  </defs>
  <metadata
     id="metadata7">
    <rdf:RDF>
      <cc:Work
         rdf:about="">
        <dc:format>image/svg+xml</dc:format>
        <dc:type
           rdf:resource="http://purl.org/dc/dcmitype/StillImage" />
        <dc:title></dc:title>
      </cc:Work>
    </rdf:RDF>
  </metadata>
  <g
     transform="translate(-41.941406,-972.00727)"
     id="layer1">
    <text
       x="42.5"
       y="49.285713"
       transform="translate(0,952.36218)"
       id="text2985"
       xml:space="preserve"
       style="font-size:40px;font-style:normal;font-weight:normal;line-height:125%;letter-spacing:0px;word-spacing:0px;opacity:0.93999999;fill:#cb2bee;fill-opacity:1;stroke:#e40000;stroke-opacity:1;filter:url(#filter3867);font-family:Sans"><tspan
         x="42.5"
         y="49.285713"
         id="tspan2987">ALEONAHAIRS</tspan></text>
  </g>
</svg>
