<?xml version="1.0" encoding="UTF-8" standalone="no"?>
<!-- Created with Inkscape (http://www.inkscape.org/) -->

<svg
   xmlns:dc="http://purl.org/dc/elements/1.1/"
   xmlns:cc="http://creativecommons.org/ns#"
   xmlns:rdf="http://www.w3.org/1999/02/22-rdf-syntax-ns#"
   xmlns:svg="http://www.w3.org/2000/svg"
   xmlns="http://www.w3.org/2000/svg"
   xmlns:sodipodi="http://sodipodi.sourceforge.net/DTD/sodipodi-0.dtd"
   xmlns:inkscape="http://www.inkscape.org/namespaces/inkscape"
   version="1.1"
   width="203.56689"
   height="46.727478"
   id="svg2985"
   inkscape:version="0.48.4 r9939"
   sodipodi:docname="logo1.svg"
   inkscape:dataloss="true">
  <sodipodi:namedview
     pagecolor="#ffffff"
     bordercolor="#666666"
     borderopacity="1"
     objecttolerance="10"
     gridtolerance="10"
     guidetolerance="10"
     inkscape:pageopacity="0"
     inkscape:pageshadow="2"
     inkscape:window-width="1920"
     inkscape:window-height="1017"
     id="namedview3471"
     showgrid="false"
     inkscape:zoom="3.6842926"
     inkscape:cx="139.92515"
     inkscape:cy="32.513469"
     inkscape:window-x="-8"
     inkscape:window-y="-8"
     inkscape:window-maximized="1"
     inkscape:current-layer="svg2985" />
  <metadata
     id="metadata2991">
    <rdf:RDF>
      <cc:Work
         rdf:about="">
        <dc:format>image/svg+xml</dc:format>
        <dc:type
           rdf:resource="http://purl.org/dc/dcmitype/StillImage" />
        <dc:title></dc:title>
      </cc:Work>
    </rdf:RDF>
  </metadata>
  <defs
     id="defs2989">
    <filter
       x="-0.25"
       y="-0.25"
       width="1.5"
       height="1.5"
       color-interpolation-filters="sRGB"
       id="filter4856">
      <feGaussianBlur
         stdDeviation="7"
         result="result8"
         id="feGaussianBlur4858" />
      <feComposite
         in2="result8"
         operator="xor"
         in="result8"
         result="result6"
         id="feComposite4860" />
      <feDisplacementMap
         in2="result6"
         scale="100"
         xChannelSelector="A"
         yChannelSelector="A"
         in="SourceGraphic"
         result="result4"
         id="feDisplacementMap4862" />
      <feComposite
         in2="result4"
         operator="arithmetic"
         k1="1"
         k2="0"
         k3="0"
         k4="0"
         in="SourceGraphic"
         result="result2"
         id="feComposite4864" />
      <feComposite
         in2="result2"
         operator="in"
         in="SourceGraphic"
         result="fbSourceGraphic"
         id="feComposite4866" />
    </filter>
    <filter
       x="-0.25"
       y="-0.25"
       width="1.5"
       height="1.5"
       color-interpolation-filters="sRGB"
       id="filter4497">
      <feGaussianBlur
         stdDeviation="7"
         result="result8"
         id="feGaussianBlur4499" />
      <feComposite
         in2="result8"
         operator="xor"
         in="result8"
         result="result6"
         id="feComposite4501" />
      <feDisplacementMap
         in2="result6"
         scale="75"
         xChannelSelector="A"
         yChannelSelector="A"
         in="result6"
         result="result4"
         id="feDisplacementMap4503" />
      <feComposite
         in2="result4"
         operator="arithmetic"
         k1="2"
         k2="0"
         k3="0"
         k4="0"
         in="SourceGraphic"
         result="result2"
         id="feComposite4505" />
      <feComposite
         in2="result2"
         operator="in"
         in="result6"
         result="fbSourceGraphic"
         id="feComposite4507" />
      <feColorMatrix
         id="feColorMatrix4727"
         values="0 0 0 -1 0 0 0 0 -1 0 0 0 0 -1 0 0 0 0 1 0"
         in="fbSourceGraphic"
         result="fbSourceGraphicAlpha" />
      <feGaussianBlur
         stdDeviation="4"
         in="fbSourceGraphicAlpha"
         result="result0"
         id="feGaussianBlur4729" />
      <feOffset
         result="result4"
         dy="5"
         dx="5"
         id="feOffset4731" />
      <feComposite
         in2="result4"
         operator="xor"
         in="fbSourceGraphic"
         result="result3"
         id="feComposite4733" />
    </filter>
    <filter
       x="0"
       y="0"
       width="1"
       height="1"
       color-interpolation-filters="sRGB"
       id="filter5215">
      <feGaussianBlur
         result="result6"
         stdDeviation="1"
         id="feGaussianBlur5217" />
      <feComposite
         in2="result6"
         operator="in"
         in="result6"
         result="result7"
         id="feComposite5219" />
      <feGaussianBlur
         in="result7"
         result="result3"
         stdDeviation="8"
         id="feGaussianBlur5221" />
      <feComposite
         in2="result7"
         operator="over"
         result="result91"
         id="feComposite5223" />
      <feComposite
         in2="result91"
         operator="in"
         in="result3"
         result="result5"
         id="feComposite5225" />
      <feColorMatrix
         result="result4"
         values="0 0 0 -1 0 0 0 0 -1 0 0 0 0 -1 0 0 0 0 1 0 "
         id="feColorMatrix5227" />
      <feSpecularLighting
         result="result11"
         in="result4"
         specularExponent="45"
         specularConstant="2"
         surfaceScale="3"
         id="feSpecularLighting5229">
        <fePointLight
           z="20000"
           y="-10000"
           x="-5000"
           id="fePointLight5231" />
      </feSpecularLighting>
      <feComposite
         in2="result4"
         operator="arithmetic"
         k1="1"
         k2="0"
         k3="0"
         k4="0"
         result="result10"
         id="feComposite5233" />
      <feComposite
         in2="result10"
         operator="arithmetic"
         k1="0"
         k2="0.5"
         k3="1"
         k4="0"
         in="result5"
         result="result8"
         id="feComposite5235" />
      <feComposite
         in2="result8"
         result="result9"
         id="feComposite5237" />
      <feBlend
         in2="result9"
         mode="normal"
         result="fbSourceGraphic"
         id="feBlend5239" />
      <feColorMatrix
         id="feColorMatrix5279"
         values="0 0 0 -1 0 0 0 0 -1 0 0 0 0 -1 0 0 0 0 1 0"
         in="fbSourceGraphic"
         result="fbSourceGraphicAlpha" />
      <feGaussianBlur
         in="fbSourceGraphic"
         result="result1"
         stdDeviation="1"
         id="feGaussianBlur5281" />
      <feComposite
         in2="result1"
         operator="in"
         in="result1"
         result="result4"
         id="feComposite5283" />
      <feGaussianBlur
         in="result4"
         result="result6"
         stdDeviation="7"
         id="feGaussianBlur5285" />
      <feComposite
         in2="result4"
         operator="over"
         in="result6"
         result="result8"
         id="feComposite5287" />
      <feComposite
         in2="result8"
         operator="in"
         in="result6"
         result="fbSourceGraphic"
         id="feComposite5289" />
      <feSpecularLighting
         in="fbSourceGraphic"
         result="result1"
         lighting-color="#ffffff"
         surfaceScale="2.5"
         specularConstant="2"
         specularExponent="45"
         id="feSpecularLighting5291">
        <fePointLight
           x="-5000"
           y="-10000"
           z="20000"
           id="fePointLight5293" />
      </feSpecularLighting>
      <feComposite
         in2="fbSourceGraphic"
         operator="in"
         in="result1"
         result="result2"
         id="feComposite5295" />
      <feComposite
         in2="result2"
         operator="arithmetic"
         k1="0"
         k2="1.2"
         k3="1.5"
         k4="0"
         in="fbSourceGraphic"
         result="result4"
         id="feComposite5297" />
      <feComposite
         in2="result4"
         operator="over"
         in="result9"
         result="result9"
         id="feComposite5299" />
      <feBlend
         in2="result9"
         mode="screen"
         result="fbSourceGraphic"
         id="feBlend5301" />
      <feColorMatrix
         id="feColorMatrix5327"
         values="0 0 0 -1 0 0 0 0 -1 0 0 0 0 -1 0 0 0 0 1 0"
         in="fbSourceGraphic"
         result="fbSourceGraphicAlpha" />
      <feColorMatrix
         in="fbSourceGraphic"
         type="luminanceToAlpha"
         result="result2"
         id="feColorMatrix5329" />
      <feDiffuseLighting
         surfaceScale="-10"
         result="result1"
         diffuseConstant="0.60000002"
         id="feDiffuseLighting5331">
        <feDistantLight
           elevation="35"
           azimuth="225"
           id="feDistantLight5333" />
      </feDiffuseLighting>
      <feComposite
         in2="fbSourceGraphic"
         operator="arithmetic"
         k1="1.5"
         k2="0"
         k3="0.5"
         k4="0"
         in="result1"
         result="result3"
         id="feComposite5335" />
      <feComposite
         in2="result3"
         operator="in"
         in="result3"
         result="result5"
         id="feComposite5337" />
      <feBlend
         in2="result1"
         mode="normal"
         in="result5"
         result="result6"
         id="feBlend5339" />
      <feComposite
         in2="result6"
         operator="arithmetic"
         k1="0"
         k2="1"
         k3="0"
         k4="0"
         result="result7"
         id="feComposite5341" />
      <feComposite
         in2="fbSourceGraphic"
         operator="in"
         in="result7"
         id="feComposite5343" />
    </filter>
    <filter
       inkscape:collect="always"
       id="filter5826">
      <feGaussianBlur
         inkscape:collect="always"
         stdDeviation="0.30088846"
         id="feGaussianBlur5828" />
    </filter>
  </defs>
  <g
     transform="matrix(0.96714144,0,0,0.96714144,538.70124,-499.77864)"
     id="layer3"
     style="fill:none;stroke:#33181d;stroke-opacity:1;display:inline;filter:url(#filter5826);stroke-width:5.34254845;stroke-miterlimit:4;stroke-dasharray:none;stroke-linecap:round;stroke-linejoin:round">
    <g
       transform="matrix(0.07270482,0,0,0.08220228,-340.50767,477.17131)"
       id="logotext"
       style="fill:none;stroke:#33181d;stroke-width:69.10746074;stroke-miterlimit:4;stroke-opacity:1;stroke-dasharray:none;filter:url(#filter5215);stroke-linecap:round;stroke-linejoin:round">
      <path
         d="m -2924.3205,1019.2758 c 172.2661,99.6761 284.1977,-401.03842 298.7926,-488.20364 -1.5906,94.60959 32.6121,326.12601 69.7619,488.20364"
         id="1"
         style="fill:none;stroke:#33181d;stroke-width:69.10746074;stroke-linecap:round;stroke-linejoin:round;stroke-miterlimit:4;stroke-opacity:1;stroke-dasharray:none"
         inkscape:connector-curvature="0" />
      <path
         d="m -1194.7014,788.9914 c 208.11963,-10.91653 154.7185,95.30444 116.9209,222.873"
         id="7-"
         style="fill:none;stroke:#33181d;stroke-width:69.10746074;stroke-linecap:round;stroke-linejoin:round;stroke-miterlimit:4;stroke-opacity:1;stroke-dasharray:none"
         inkscape:connector-curvature="0" />
      <path
         d="m -2438.0975,658.47458 c -2.412,125.41359 -1.0343,181.19517 -1.8133,353.38982"
         id="2"
         style="fill:none;stroke:#33181d;stroke-width:69.10746074;stroke-linecap:round;stroke-linejoin:round;stroke-miterlimit:4;stroke-opacity:1;stroke-dasharray:none"
         inkscape:connector-curvature="0" />
      <path
         d="m -2326.1413,848.71972 c 90.577,71.41638 218.0776,-37.40226 138.8469,-78.84919 -246.6778,-108.62818 -199.6516,324.26427 0.7353,203.07797"
         id="3"
         style="fill:none;stroke:#33181d;stroke-width:69.10746074;stroke-linecap:round;stroke-linejoin:round;stroke-miterlimit:4;stroke-opacity:1;stroke-dasharray:none"
         inkscape:connector-curvature="0" />
      <path
         d="m -1986.2353,767.47986 c -142.5369,-4.07043 -174.3263,223.02305 0,227.48621 179.6015,-12.42563 128.4191,-227.68588 0,-227.48621 z"
         id="4"
         style="fill:none;stroke:#33181d;stroke-width:69.10746074;stroke-linecap:round;stroke-linejoin:round;stroke-miterlimit:4;stroke-opacity:1;stroke-dasharray:none"
         inkscape:connector-curvature="0" />
      <path
         d="m -1774.8902,1014.2773 c 2.9258,-8.7771 2.2332,-224.12152 2.2332,-224.12152 225.5617,-28.04979 168.5919,114.90607 174.6062,229.12002"
         id="5"
         style="fill:none;stroke:#33181d;stroke-width:69.10746074;stroke-linecap:round;stroke-linejoin:round;stroke-miterlimit:4;stroke-opacity:1;stroke-dasharray:none"
         inkscape:connector-curvature="0" />
      <path
         d="M -1515.295,1004.2239 -1412.9619,757.41317 -1302.3,1004.2239"
         id="6"
         style="fill:none;stroke:#33181d;stroke-width:69.10746074;stroke-linecap:round;stroke-linejoin:round;stroke-miterlimit:4;stroke-opacity:1;stroke-dasharray:none;display:inline"
         inkscape:connector-curvature="0" />
      <path
         d="m -1354.9223,908.30474 -104.1399,-4.73576"
         id="6-"
         style="fill:none;stroke:#33181d;stroke-width:69.10746074;stroke-linecap:round;stroke-linejoin:round;stroke-miterlimit:4;stroke-opacity:1;stroke-dasharray:none;display:inline"
         inkscape:connector-curvature="0" />
      <path
         d="m -1205.4859,613.67562 5.9178,390.56168"
         id="7"
         style="fill:none;stroke:#33181d;stroke-width:69.10746074;stroke-linecap:round;stroke-linejoin:round;stroke-miterlimit:4;stroke-opacity:1;stroke-dasharray:none"
         inkscape:connector-curvature="0" />
      <path
         d="m -998.17112,1000.6284 111.294,-219.92798 101.70098,219.92798"
         id="8"
         style="fill:none;stroke:#33181d;stroke-width:69.10746074;stroke-linecap:round;stroke-linejoin:round;stroke-miterlimit:4;stroke-opacity:1;stroke-dasharray:none;display:inline"
         inkscape:connector-curvature="0" />
      <path
         d="m -699.31662,759.43017 -9.29708,252.43423"
         id="9"
         style="fill:none;stroke:#33181d;stroke-width:69.10746074;stroke-linecap:round;stroke-linejoin:round;stroke-miterlimit:4;stroke-opacity:1;stroke-dasharray:none"
         inkscape:connector-curvature="0" />
      <path
         d="m -694.99087,592.76397 -0.40487,37.31152"
         id="path4914"
         style="fill:none;stroke:#33181d;stroke-width:69.10746002;stroke-linecap:round;stroke-linejoin:round;stroke-miterlimit:4;stroke-opacity:1;stroke-dasharray:none"
         inkscape:connector-curvature="0" />
      <path
         d="m -831.22441,903.96461 -114.30937,-2.19339"
         id="9-"
         style="fill:none;stroke:#33181d;stroke-width:69.10746074;stroke-linecap:round;stroke-linejoin:round;stroke-miterlimit:4;stroke-opacity:1;stroke-dasharray:none;display:inline"
         inkscape:connector-curvature="0" />
      <path
         d="m -594.27423,1012.8365 7.48271,-241.87896 c 204.6154,-3.31879 151.10694,142.42548 -4.84583,118.03654"
         id="10"
         style="fill:none;stroke:#33181d;stroke-width:69.10746074;stroke-linecap:round;stroke-linejoin:round;stroke-miterlimit:4;stroke-opacity:1;stroke-dasharray:none"
         inkscape:connector-curvature="0" />
      <path
         d="m -550.2074,887.21986 c 53.67501,52.30755 67.33048,102.96021 87.53674,124.64454"
         id="10-"
         style="fill:none;stroke:#33181d;stroke-width:69.10746074;stroke-linecap:round;stroke-linejoin:round;stroke-miterlimit:4;stroke-opacity:1;stroke-dasharray:none"
         inkscape:connector-curvature="0" />
      <path
         d="m -185.09101,783.86407 c -27.53424,-65.0663 -173.05033,-37.0576 -154.86654,63.81237 -2.92594,53.70841 156.01026,-32.19484 159.68577,83.32464 -20.71565,90.36712 -96.29488,64.91062 -181.02883,69.07792"
         id="11"
         style="fill:none;stroke:#33181d;stroke-width:69.10746074;stroke-linecap:round;stroke-linejoin:round;stroke-miterlimit:4;stroke-opacity:1;stroke-dasharray:none"
         inkscape:connector-curvature="0"
         sodipodi:nodetypes="cccc" />
      <path
         d="m -2702.6807,852.73121 c 51.2976,4.05687 114.7125,8.38149 167.9349,7.86201"
         id="path4904"
         style="fill:none;stroke:#33181d;stroke-width:69.10746074;stroke-miterlimit:4;stroke-opacity:1;stroke-dasharray:none;stroke-linecap:round;stroke-linejoin:round"
         inkscape:connector-curvature="0" />
    </g>
  </g>
  <g
     transform="translate(555.881,-518.06551)"
     id="layer4"
     style="display:inline" />
  <g
     transform="translate(555.881,-518.06551)"
     id="layer5" />
  <g
     transform="translate(555.881,-518.06551)"
     id="layer1"
     style="display:inline" />
  <g
     transform="translate(555.881,-518.06551)"
     id="layer2"
     style="display:inline" />
</svg>
