<?xml version="1.0" encoding="UTF-8" standalone="no"?>
<!-- Created with Inkscape (http://www.inkscape.org/) -->

<svg
   xmlns:dc="http://purl.org/dc/elements/1.1/"
   xmlns:cc="http://creativecommons.org/ns#"
   xmlns:rdf="http://www.w3.org/1999/02/22-rdf-syntax-ns#"
   xmlns:svg="http://www.w3.org/2000/svg"
   xmlns="http://www.w3.org/2000/svg"
   version="1.1"
   width="100"
   height="150"
   id="svg2985">
  <metadata
     id="metadata2991">
    <rdf:RDF>
      <cc:Work
         rdf:about="">
        <dc:format>image/svg+xml</dc:format>
        <dc:type
           rdf:resource="http://purl.org/dc/dcmitype/StillImage" />
        <dc:title></dc:title>
      </cc:Work>
    </rdf:RDF>
  </metadata>
  <defs
     id="defs2989" />
  <g
     transform="matrix(0.18400689,-0.21239448,0.20775474,0.17998727,21.586123,155.33049)"
     id="rose">
    <text
       x="163.14673"
       y="-72.029373"
       id="text3819"
       xml:space="preserve"
       style="font-size:40px;font-style:normal;font-weight:normal;line-height:125%;letter-spacing:0px;word-spacing:0px;fill:#000000;fill-opacity:1;stroke:none;font-family:Sans"><tspan
         x="163.14673"
         y="-72.029373"
         id="tspan3821">alenahaurs</tspan><tspan
         x="163.14673"
         y="-22.029373"
         id="tspan3823" /></text>
    <path
       d="m 268.01893,-124.58235 c -0.66556,1.79549 -1.62808,3.47547 -2.66699,5.0855 -0.64798,1.36155 -1.6577,2.454 -2.62886,3.58143 -0.52334,0.6831 -1.37664,1.36639 -1.80537,2.10712 -0.53171,0.96597 -1.69783,1.46121 -2.25661,2.38055 -0.70151,0.9098 -1.41874,1.80561 -2.17585,2.67413 -0.35013,0.47623 -0.65461,1.01354 -1.06231,1.65834 0.49683,-0.8941 -0.4748,1.36081 -0.54147,1.55011 -0.54371,1.03408 -0.86123,1.80587 -1.09952,2.42562 -0.34696,1.03619 -0.84454,2.02466 -1.3641,2.98807 -0.25223,0.665255 0.28661,-0.7731 0.0689,-0.0816 -0.20352,0.646411 -0.50871,1.259627 -0.73726,1.897174 0.35762,-0.443815 -0.96024,2.432927 -0.63964,1.957665 -0.35518,0.875076 -0.30309,1.30188 -0.44035,2.228134 -0.073,1.231236 -0.47632,2.426005 -0.89231,3.589942 -0.36904,1.032965 -0.64103,2.066155 -1.04537,3.089193 -0.45943,1.013837 -0.73038,1.96155 -1.16837,2.979803 -0.20571,0.85693 -1.53629,2.17851 -1.7951,2.979742 -0.66656,0.938962 -0.75553,1.305765 -0.96256,1.820724 -0.40674,1.042442 -0.43691,1.053923 -0.69476,2.021602 -0.43812,1.09682 -0.83116,2.041629 -1.1066,2.797215 -0.0702,0.58278 -0.46501,1.680807 -0.7234,2.435442 -0.36085,0.905367 -0.62538,1.830415 -0.90721,2.751731 -0.15378,0.704428 -0.83912,1.66494 -0.75938,2.399231 -0.1549,0.936109 -0.35718,1.882401 -0.42012,2.827138 0.17281,1.087078 -0.48621,2.161815 -0.51763,3.217149 -0.10965,0.827956 -0.23975,1.72171 -0.33806,2.583537 -0.21387,1.301573 -0.6475,2.556885 -1.04537,3.810183 -0.19536,0.662564 -0.32183,1.390373 -0.45352,2.094709 -0.20203,1.061048 -0.59173,2.120941 -0.69251,3.19528 -0.30679,1.151413 -0.36574,2.289453 -0.64587,3.448206 -0.31704,1.007315 -0.51855,2.031232 -0.74641,3.057624 -0.0196,1.059208 -0.26479,2.102754 -0.55024,3.130638 -0.21367,0.833355 -0.40078,1.656046 -0.60103,2.493807 0.106,0.877703 -0.27924,2.020845 -0.51959,2.872755 -0.23225,0.727778 -0.19388,1.590106 -0.25823,2.333679 -0.10427,0.944206 -0.0149,1.879354 -0.0634,2.827282 -0.0397,1.097924 -0.24457,2.191891 -0.38137,3.285164 -0.16308,1.033895 -0.22951,2.069559 -0.33605,3.106808 -0.10988,0.879032 -0.0267,1.752789 -0.0773,2.637291 -0.24096,1.070781 -0.34208,2.130797 -0.51623,3.205606 -0.11912,1.033344 -0.21652,2.06682 -0.37699,3.097761 -0.21026,1.013908 -0.42409,2.040862 -0.47084,3.071813 -0.0118,1.2109634 -0.14017,2.4332543 -0.34516,3.6348122 -0.30966,1.1006536 -0.59916,2.1902764 -0.94616,3.2813814 -0.14144,1.0026018 -0.44279,1.978306 -0.75375,2.9484997 0.14594,0.20642947 -0.21872,1.02652437 -0.15518,1.45949252 -0.0556,1.32597578 -0.3871,2.62248798 -0.63101,3.92714818 -0.37601,1.1947594 -0.56303,2.4216916 -0.86511,3.6317554 -0.3048,1.0832331 -0.71586,2.1354386 -1.05656,3.2089086 -0.27181,1.174721 -0.75058,2.295515 -1.11437,3.444566 -0.4736,1.108413 -0.76881,2.259856 -1.20195,3.383553 -0.44171,1.069483 -0.58012,1.224643 -0.82454,2.12037 -0.14421,0.912258 -0.99741,1.701274 -1.10702,2.606846 -0.43201,0.87067 -0.40465,1.279899 -0.56072,2.187731 -0.0411,0.973005 -0.41919,1.973971 -0.65513,2.887824 -0.23812,0.784395 -0.44886,1.530146 -0.58607,2.324018 -0.19207,1.280799 -0.72919,2.454897 -1.21342,3.64845 0.0264,0.06441 0.15835,-0.392678 0.14162,-0.288001 -0.13102,0.8231 -0.37528,1.623403 -0.61903,2.421977 -0.21087,0.740548 -0.52897,1.521998 -0.55779,2.292285 -0.0256,0.669056 -0.20939,1.320905 -0.12648,1.987241 0.11403,1.20212 0.10859,2.433653 0.0657,3.647908 -0.0927,0.96679 -0.007,1.921894 -0.0604,2.891434 0.0537,0.930547 0.0235,1.864458 0.0145,2.799699 0.0362,0.740976 0.208,1.460831 0.37008,2.176107 0.38968,1.562645 0.46217,3.196118 0.34633,4.818806 -0.002,0.951608 -0.11973,1.906221 -0.0665,2.855447 0.12186,0.986878 -0.0356,1.98996 0.0774,2.977115 0.17424,1.226554 -0.2572,2.452627 -0.23136,3.675051 0.15764,1.014461 0.18423,2.042089 0.21131,3.072999 0.14777,1.043066 0.17423,2.095261 0.18913,3.153733 0.16669,1.327233 0.0917,2.658812 -0.10737,3.993477 -0.0706,0.780786 0.0931,1.554202 0.15283,2.326963 0.051,1.273652 0.20623,2.528545 0.23874,3.804406 0.14238,1.117533 -0.0283,2.255604 0.0225,3.377839 0.0957,1.25153 -0.0111,2.531879 -0.21254,3.780811 0.0367,0.706003 -0.21737,1.419826 -0.1627,2.123488 -0.10047,1.196927 -0.0465,2.386901 -0.0729,3.582847 0.007,1.0973 -0.12969,2.190041 -0.024,3.280758 -0.0584,1.220634 0.0276,2.427516 0.0348,3.643176 -0.0548,1.0372 0.0437,2.05737 -0.005,3.09634 -0.0225,0.29749 0.0108,0.58962 0.0445,0.88182 69.2966,137.62567 -101.94786,44.94106 -8.93809,1.22446 l 0,0 c -0.0589,-0.71681 -3.88062,-0.28041 -3.83571,-1.00513 0.0442,-0.82734 3.67705,-3.03519 3.76177,-4.01811 -0.0351,-0.745 -0.12003,-1.80889 -0.008,-2.68608 -0.10383,-1.407609 -0.0448,-2.809667 -0.004,-4.222981 0.024,-1.133061 -0.0352,-2.263342 0.0695,-3.397109 0.0212,-1.293803 0.18539,-2.333107 0.28193,-3.587448 0.0823,-0.508866 0.19657,-1.261875 0.0956,-2.079445 -0.0178,-1.134339 0.0999,-2.246597 -0.0224,-3.37102 -0.0274,-1.16598 -0.19614,-2.311831 -0.22501,-3.479898 0.0302,-1.358966 -0.43837,-2.827486 -0.0656,-4.25777 0.10769,-0.70407 0.12356,-1.594359 0.004,-2.50355 -0.0107,-1.036155 -0.0678,-1.921117 -0.18692,-3.035357 -0.0278,-1.176797 -0.14905,-2.316974 -0.21194,-3.501142 0.0275,-0.826597 0.10473,-1.951255 0.26844,-2.626445 -0.0991,-1.162964 -0.0371,-2.322504 -0.11022,-3.478119 -0.0393,-1.298066 0.0443,-2.594292 0.0856,-3.894392 0.0547,-0.668494 0.0583,-1.426563 -0.15319,-2.140612 -0.31565,-1.413651 -0.59899,-2.845183 -0.58802,-4.316002 0.0226,-1.082866 0.0156,-2.017595 -9.1e-4,-3.172391 0.0531,-0.899315 -0.0679,-1.978132 0.0681,-2.998543 0.10506,0.321074 0.0147,0.07248 -0.007,-0.630841 -0.0103,-0.320613 0.0583,-0.64546 0.0313,-0.964376 -0.0213,-0.265418 -0.0616,-0.528137 -0.0924,-0.792196 -0.074,-1.336976 0.0489,-2.647065 0.20578,-3.97759 0.20607,-1.243473 0.47864,-2.49119 0.87683,-3.694322 0.22024,-0.707628 0.4614,-1.946041 0.83632,-3.105346 0.33746,-0.764603 0.36879,-0.703017 0.54593,-1.343785 0.17676,-0.993891 0.41236,-2.012646 0.69997,-2.925078 0.3543,-1.429456 0.42604,-1.116254 0.57181,-2.470855 0.21772,-1.215482 0.36365,-2.470917 0.92464,-3.601229 0.35223,-0.967924 0.71556,-1.759251 1.05825,-2.522494 0.0127,-0.02597 -0.004,0.05756 -0.007,0.08629 0.34517,-1.039221 0.73802,-2.044369 1.10382,-2.87985 0.27254,-0.792901 0.56125,-1.837234 0.94814,-2.702434 0.37384,-1.111266 0.80967,-2.2056831 1.08197,-3.3444698 0.31503,-0.9905382 0.68653,-1.9394981 0.94267,-2.8222927 0.42414,-0.894807 0.20669,-2.0562997 0.7054,-2.9427951 0.14798,-0.7540215 0.33876,-1.6229328 0.46324,-2.31061515 0.0484,-1.41307857 0.26888,-2.81653695 0.61171,-4.19876155 0.27168,-0.8350005 0.51434,-1.8689572 0.75099,-2.9400348 0.2135,-0.6451431 0.35847,-1.6561279 0.64857,-2.204681 0.0373,-0.070439 -0.0162,0.1567747 -0.0232,0.2350956 0.13574,-0.7943219 0.24358,-1.7648325 0.23424,-2.7106845 0.10158,-1.290675 0.26435,-2.590704 0.55942,-3.859715 0.16326,-1.049077 0.24913,-2.106517 0.38745,-3.163364 0.0735,-0.450255 0.25207,-2.370677 0.41452,-2.535763 0.0697,-0.07085 -0.003,0.196002 -0.003,0.293941 0.0607,-1.028457 -0.0679,-2.177691 0.13693,-3.279296 0.0725,-1.032536 0.23686,-2.085416 0.33874,-3.127694 0.13496,-1.019501 0.31123,-1.881011 0.31715,-2.582413 0.0588,-1.069073 -0.0808,-2.203883 0.10312,-3.316273 0.11724,-0.444705 -0.0224,0.119725 0.0613,-1.048934 0.069,-0.962976 0.28965,-1.904811 0.49947,-2.849446 0.11002,-0.389192 0.33684,-1.460883 0.43644,-2.557969 0.23314,-0.934524 0.46417,-1.852518 0.673,-2.768743 0.14227,-0.512035 0.33513,-1.571437 0.43567,-2.674759 0.26593,-1.171379 0.50614,-2.346203 0.85723,-3.499967 0.004,0.02515 -1.4e-4,0.05541 0.0146,0.07565 0.18876,0.246443 0.0569,-0.636954 0.0938,-0.954859 0.0328,-0.281448 0.0844,-0.56124 0.13721,-0.840398 0.0997,-0.527115 0.0397,-0.403444 0.16566,-0.63261 0.19691,-1.188462 0.45953,-2.372742 0.7521,-3.543477 0.22526,-1.141986 0.44834,-2.25773 0.79118,-3.37286 0.24585,-0.84048 0.41912,-1.307226 0.6077,-1.885662 0.1328,-1.087966 0.30489,-2.158226 0.43828,-3.231011 0.2942,-1.408478 0.3502,-0.946997 0.40084,-2.420485 0.13702,-1.206588 0.31902,-2.409618 0.53382,-3.607679 0.25386,-1.200863 0.57778,-2.423532 1.05641,-3.56143 0.41993,-0.914251 0.53039,-2.062392 0.98525,-2.98243 0.24778,-0.693101 0.51664,-1.599471 0.81366,-2.680761 0.22858,-0.395122 -0.10279,0.188467 0.37955,-1.064504 0.6219,-1.615634 -0.16259,0.364339 0.49657,-1.1238 0.0153,-0.03404 -0.009,0.07351 -0.0126,0.109983 0.32017,-1.053719 0.66447,-2.054204 1.03458,-2.982002 0.46546,-0.983003 0.82768,-2.019332 1.49255,-2.901165 0.44637,-0.7498 0.89615,-1.519156 1.38391,-2.241169 0.0224,-0.03394 -0.0165,0.07995 -0.0224,0.119992 0.44379,-0.876743 0.64407,-1.863447 1.06985,-2.750362 0.43917,-0.825574 0.50827,-1.833605 0.89023,-2.689451 0.4119,-1.104456 0.2729,-0.516462 0.42905,-1.764168 0.15853,-1.051285 0.21791,-2.143187 0.62535,-3.148028 0.36992,-1.292914 0.6444,-1.7875 1.00656,-3.09841 0.37733,-0.93713 0.74805,-2.01813 1.27329,-3.07756 0.29413,-0.58945 0.56386,-1.04109 0.78492,-1.79074 0.25498,-0.49781 -0.27673,0.55034 0.43624,-1.13649 0.2163,-0.51181 0.39055,-0.78769 0.63803,-1.27815 0.0102,-0.0228 -0.006,0.049 -0.009,0.0733 0.41396,-1.03305 0.81103,-2.22289 1.44511,-3.30818 0.68749,-0.88566 1.13097,-1.97267 1.92418,-2.78968 0.66229,-0.71646 1.22706,-1.48416 1.82819,-2.25859 0.68871,-0.8393 1.45529,-1.59184 2.22315,-2.33785 0.71136,-0.87778 1.44769,-1.74101 2.20117,-2.58193 0.67437,-0.74802 1.32082,-1.45699 1.74175,-2.41726 0.79331,-1.21369 1.50312,-2.48129 1.98719,-3.84759 -1.22421,-29.33235 32.29379,-14.41942 8.11534,3.52039 z"
       id="path3816"
       style="fill:#000000;fill-opacity:1;fill-rule:nonzero;stroke:none" />
    <path
       d="m 261.08003,-197.77268 c -22.025,-18.14463 -26.52549,-20.75904 -53.00774,-8.73334 16.24041,-23.30412 29.39887,-27.68542 49.69879,-6.62651 l 1.98796,-7.28916 -19.21687,-18.55421 -14.75289,-58.30755 -1.07033,-18.7678 28.1862,21.60679 3.23285,41.82737 4.00921,3.16626 0.27448,-57.11544 15.90361,-24.51807 -11.08477,-14.85279 26.7208,-21.25881 18.8218,1.65377 12.47667,-6.13154 30.59562,0.16769 34.73921,16.31818 -0.81654,39.14348 -14.7058,16.1046 13.25301,5.30121 0.66265,16.56626 -17.89156,23.85542 13.25301,6.62651 -7.95181,21.20482 -47.71084,21.86747 c 25.80282,1.81456 23.79083,10.11758 35.78313,19.21687 -9.99457,6.21085 -36.59216,-21.40012 -69.80644,-2.49427"
       id="roze_wrap"
       style="fill:none;stroke:#000000;stroke-width:1px;stroke-linecap:butt;stroke-linejoin:miter;stroke-opacity:1" />
    <path
       d="m 264.63877,-252.03483 0.74304,-48.43034 14.58807,-27.63724 11.92771,27.5 z"
       id="left_top"
       style="fill:none;stroke:#000000;stroke-width:1px;stroke-linecap:butt;stroke-linejoin:miter;stroke-opacity:1" />
    <path
       d="m 304.81928,-290.66265 -23.85542,-45.72289 -9.27712,-8.94579 c 8.2388,-6.45692 16.35057,-12.58267 25.84338,-16.89759 l 13.91566,-0.66265 -9.93976,45.06025 6.62651,15.24096 z"
       id="top1"
       style="fill:none;stroke:#000000;stroke-width:1px;stroke-linecap:butt;stroke-linejoin:miter;stroke-opacity:1" />
    <path
       d="m 308.13253,-317.16867 3.00547,-31.10439 20.84995,-19.91971 41.74699,10.93373 10.85334,21.77043 -8.86539,24.94644 -2.6506,-5.3012 6.62651,-19.21687 -16.56627,-19.21687 -25.18072,-3.9759 -20.70296,14.27053 36.60657,-5.65607 17.89157,20.54216 -3.97591,12.59037 -6.6265,-3.31326 -13.25301,-19.21687 -21.86747,0.66266 -7.95181,7.28915 -3.31325,10.60241 13.25301,9.93976 31.89451,-2.30263 -15.51544,9.08303 -31.62004,6.47261 z"
       id="center"
       style="fill:none;stroke:#000000;stroke-width:1px;stroke-linecap:butt;stroke-linejoin:miter;stroke-opacity:1" />
    <path
       d="m 382.53659,-294.24349 -2.37613,19.71184 -13.40689,18.36013 -16.2114,14.54501 -14.57831,1.98796 7.28915,-19.21687 11.26506,-8.61446 20.49508,-15.32135 z"
       id="right"
       style="fill:none;stroke:#000000;stroke-width:1px;stroke-linecap:butt;stroke-linejoin:miter;stroke-opacity:1" />
    <path
       d="m 300.18072,-223.73494 20.54217,-4.63855 3.97591,-19.87952 21.20481,-27.83133 -45.06024,8.61446 z"
       id="bottom_center "
       style="fill:none;stroke:#000000;stroke-width:1px;stroke-linecap:butt;stroke-linejoin:miter;stroke-opacity:1" />
    <path
       d="m 284.93976,-213.13253 -20.54217,-9.27711 2.6506,-25.84337 24.51808,-39.09639 0,62.95181 z"
       id="path3013"
       style="fill:none;stroke:#000000;stroke-width:1px;stroke-linecap:butt;stroke-linejoin:miter;stroke-opacity:1" />
    <path
       d="m 282.95181,-201.86747 c 0,0 22.53012,-15.24096 25.84337,-15.24096 3.31325,0 20.54217,-3.97591 20.54217,-3.97591 l 44.89945,-26.13449 -3.87886,17.43965 -25.72279,11.94435 z"
       id="bottom_right"
       style="fill:none;stroke:#000000;stroke-width:1px;stroke-linecap:butt;stroke-linejoin:miter;stroke-opacity:1" />
    <path
       d="m 261.23133,-225.12113 -15.34086,-13.04513 -9.98686,-38.58073 -7.28915,-33.13253 21.20482,18.55422 3.31325,44.39759 z"
       id="bottom_left"
       style="fill:none;stroke:#000000;stroke-width:1px;stroke-linecap:butt;stroke-linejoin:miter;stroke-opacity:1" />
    <path
       d="m 350.54217,-325.12048 -13.25301,10.60241 c 0,0 -15.26493,-3.53052 -16.56627,-9.93976 -0.76124,-3.74919 6.62651,-9.27711 6.62651,-9.27711 l 17.22891,0.66265 z"
       id="center_main"
       style="fill:none;stroke:#000000;stroke-width:1px;stroke-linecap:butt;stroke-linejoin:miter;stroke-opacity:1" />
    <path
       d="m 351.59531,-278.87545 -1.51005,-6.34219 -48.62348,7.85224 c 0,0 0.60402,-5.73817 2.11407,-5.73817 1.51005,0 43.1873,-10.87233 44.69735,-12.68439 1.51005,-1.81205 13.89243,-14.79845 13.89243,-14.79845 l 3.92611,8.45626 4.53014,4.22813 -6.6442,15.70448 z"
       id="right_c"
       style="fill:none;stroke:#000000;stroke-width:0.91151863px;stroke-linecap:butt;stroke-linejoin:miter;stroke-opacity:1" />
  </g>
</svg>
